<?xml version="1.0" encoding="utf-8"?>
<!-- Generator: Adobe Illustrator 24.0.2, SVG Export Plug-In . SVG Version: 6.00 Build 0)  -->
<svg version="1.1" id="Capa_1" xmlns="http://www.w3.org/2000/svg" xmlns:xlink="http://www.w3.org/1999/xlink" x="0px" y="0px"
	 viewBox="0 0 140 140" style="enable-background:new 0 0 140 140;" xml:space="preserve">
<style type="text/css">
	.st0{fill:#C10E2D;}
</style>
<g>
	<path class="st0" d="M63.6425,49.2391H38.1667c-1.1963-0.0002-2.1662,0.9695-2.1663,2.1658c0,0.0002,0,0.0004,0,0.0005v5.0143
		c0.019,1.1964,1.0042,2.151,2.2007,2.132c1.1697-0.0185,2.1134-0.9623,2.132-2.132v-2.848h21.1429v14.7318H40.333v-3.2182
		c0.0002-1.1963-0.9695-2.1662-2.1658-2.1663c-0.0002,0-0.0004,0-0.0005,0c-1.1963-0.0001-2.1662,0.9695-2.1663,2.1658
		c0,0.0002,0,0.0004,0,0.0005v5.3846c-0.0002,1.1963,0.9695,2.1662,2.1658,2.1663c0.0002,0,0.0004,0,0.0005,0h25.4758
		c1.1963,0.0001,2.1662-0.9695,2.1663-2.1658c0-0.0002,0-0.0004,0-0.0005V51.4052c0.0001-1.1961-0.9694-2.1659-2.1655-2.166
		C63.643,49.2391,63.6427,49.2391,63.6425,49.2391L63.6425,49.2391z M39.611,103.3814c-4.9024,0-8.8912,3.9888-8.8912,8.8912
		c0,4.9024,3.9886,8.891,8.8912,8.891s8.8912-3.9883,8.8912-8.891C48.5025,107.37,44.5134,103.3814,39.611,103.3814z
		 M39.611,116.831c-2.5137,0-4.5586-2.0449-4.5586-4.5583c0-2.5137,2.0452-4.5586,4.5586-4.5586
		c2.5137,0,4.5586,2.0449,4.5586,4.5586C44.1696,114.7861,42.1247,116.831,39.611,116.831z M104.4842,103.3814
		c-4.9027,0-8.8912,3.9888-8.8912,8.8912c0,4.9024,3.9888,8.891,8.8912,8.891c4.9024,0,8.8912-3.9886,8.8912-8.891
		C113.3754,107.3702,109.3868,103.3814,104.4842,103.3814L104.4842,103.3814z M104.4842,116.831
		c-2.5137,0-4.5586-2.0449-4.5586-4.5583c0-2.5137,2.0452-4.5586,4.5586-4.5586c2.5134,0,4.5586,2.0449,4.5586,4.5586
		C109.0428,114.7861,106.9979,116.831,104.4842,116.831z"/>
	<path class="st0" d="M137.8337,97.9153h-5.4236V77.4873c0.0002-1.1963-0.9695-2.1662-2.1658-2.1663c-0.0002,0-0.0004,0-0.0005,0
		H99.7108v-2.6043c0-0.8991-0.1162-1.7715-0.3332-2.6037l29.1636-35.4836v8.5073c-3.5547,0.9567-6.1792,4.2063-6.1792,8.0584v6.1792
		c-0.0002,1.1963,0.9695,2.1662,2.1658,2.1663c0.0002,0,0.0004,0,0.0005,0h4.0128v4.0347c-2.0913,0.8565-3.5686,2.914-3.5686,5.3101
		c0,3.1623,2.5726,5.7349,5.7349,5.7349c1.1963,0.0001,2.1662-0.9695,2.1663-2.1658c0-0.0002,0-0.0004,0-0.0005
		c0.0001-1.1963-0.9695-2.1662-2.1658-2.1663c-0.0002,0-0.0004,0-0.0005,0c-0.7739-0.001-1.401-0.6281-1.402-1.402
		c0.0011-0.7739,0.6281-1.401,1.402-1.402c1.1963,0.0002,2.1662-0.9695,2.1663-2.1658c0-0.0002,0-0.0004,0-0.0005v-5.7764h4.0128
		c1.1963,0.0001,2.1662-0.9695,2.1663-2.1658c0-0.0002,0-0.0004,0-0.0005v-6.1792c0-3.8524-2.6245-7.102-6.1792-8.0584V29.3578
		l0.9556-1.1627c1.7897-0.7185,3.263-2.0228,4.2-3.7372c1.0688-1.9559,1.312-4.2107,0.6849-6.3494
		c-1.0356-3.5315-4.3272-5.9974-8.0041-5.9974c-0.7932,0-1.5837,0.1141-2.3508,0.3386c-4.1419,1.2148-6.6319,5.3783-5.8556,9.5338
		l-15.7024,19.1053c-0.7596,0.9241-0.6263,2.2891,0.2979,3.0487c0.0001,0.0001,0.0003,0.0002,0.0004,0.0003
		c0.9238,0.7598,2.2886,0.6269,3.0484-0.2969c0.0003-0.0004,0.0006-0.0007,0.0009-0.0011l14.499-17.6411
		c0.9452,0.996,2.121,1.744,3.4237,2.1781L97.189,65.9522c-0.8877-1.0253-1.969-1.8653-3.182-2.4719l10.6343-12.939
		c0.7725-0.9138,0.658-2.2808-0.2559-3.0533c-0.9138-0.7725-2.2808-0.658-3.0533,0.2559c-0.0129,0.0153-0.0256,0.0308-0.0381,0.0464
		L89.2915,62.394c-5.6501,0.0508-10.231,4.6609-10.231,10.323v2.6043h-3.1418V62.4101c0.0001-1.1963-0.9695-2.1662-2.1658-2.1663
		c-0.0002,0-0.0004,0-0.0005,0c-1.1963-0.0001-2.1662,0.9695-2.1663,2.1658c0,0.0002,0,0.0004,0,0.0005v12.9112H30.2229v-27.745
		c0-2.2687,1.8457-4.1143,4.1149-4.1143h33.1336c2.2686,0,4.1149,1.8457,4.1149,4.1143v6.168
		c-0.0001,1.1963,0.9695,2.1662,2.1658,2.1663c0.0002,0,0.0004,0,0.0005,0c1.1963,0.0002,2.1662-0.9695,2.1663-2.1658
		c0-0.0002,0-0.0004,0-0.0005v-6.168c0-4.6579-3.7896-8.4473-8.4475-8.4473h-4.3667l-1.6637-12.0257
		c-0.1484-1.0714-1.0642-1.8693-2.1459-1.8694H42.5149c-1.0817,0.0001-1.9975,0.798-2.1459,1.8694L38.7048,39.129h-4.367
		c-4.6579,0-8.4475,3.7896-8.4475,8.4473V75.321h-6.7399c-5.9786,0-10.8423,5.1106-10.8423,11.3921v11.2022H2.456
		c-1.1963-0.0001-2.1662,0.9695-2.1663,2.1658c0,0.0002,0,0.0004,0,0.0005v12.1911c-0.0001,1.1963,0.9695,2.1662,2.1658,2.1663
		c0.0002,0,0.0004,0,0.0005,0h21.6922c1.0585,7.5885,7.5872,13.4498,15.4625,13.4498c7.8756,0.0003,14.4046-5.861,15.4628-13.4495
		h33.9484c1.0585,7.5885,7.5872,13.4498,15.4625,13.4498s14.404-5.8613,15.4625-13.4498h17.8867
		c1.1963,0.0002,2.1662-0.9695,2.1663-2.1658c0-0.0002,0-0.0004,0-0.0005v-12.1911c0.0002-1.1964-0.9696-2.1665-2.166-2.1666
		C137.8339,97.9153,137.8338,97.9153,137.8337,97.9153L137.8337,97.9153z M134.7202,51.1956v4.0128h-8.0254v-4.0128
		c0-2.2127,1.8001-4.0128,4.0128-4.0128C132.9203,47.1828,134.7202,48.9829,134.7202,51.1956L134.7202,51.1956z M127.1227,22.2495
		c-0.0101-0.0199-0.0213-0.039-0.0311-0.0592c-0.9087-1.8929-0.1171-4.2797,1.7297-5.273c0.5812-0.3104,1.2299-0.473,1.8888-0.4734
		c1.7666,0,3.3484,1.1859,3.8461,2.8837c0.3023,1.0206,0.1837,2.1197-0.3294,3.0523c-0.3214,0.5904-0.7869,1.09-1.3532,1.4522
		v-3.3754c0.0001-1.1963-0.9695-2.1662-2.1658-2.1663c-0.0002,0-0.0004,0-0.0005,0c-1.1963-0.0001-2.1662,0.9695-2.1663,2.1658
		c0,0.0002,0,0.0004,0,0.0005v3.3694C127.9364,23.4361,127.4467,22.8919,127.1227,22.2495L127.1227,22.2495z M44.4018,29.5668
		h13.0056l1.3232,9.5622H43.0784C43.0784,39.129,44.4018,29.5668,44.4018,29.5668z M83.3932,72.717
		c0-3.3039,2.6881-5.9922,5.9922-5.9922c3.2278,0,5.9922,2.7677,5.9922,5.9922v2.6043H83.3929V72.717H83.3932z M15.4698,110.1063
		H4.6226v-7.8581h10.8472V110.1063z M39.611,123.5561c-6.2217,0-11.2835-5.0618-11.2835-11.2835s5.0618-11.2838,11.2835-11.2838
		s11.2838,5.0618,11.2838,11.2838S45.833,123.5561,39.611,123.5561z M104.4842,123.5561c-6.2217,0-11.2835-5.0615-11.2835-11.2835
		c0-2.6886,0.981-5.3224,2.7361-7.3582c1.9914-2.3096,4.8923-3.7462,7.9389-3.9089c0.2025-0.0107,0.4052-0.0161,0.608-0.0161
		c6.2217,0,11.2835,5.0618,11.2835,11.2838C115.7671,118.4949,110.7059,123.5561,104.4842,123.5561L104.4842,123.5561z
		 M122.6533,97.9155c-1.1963-0.0001-2.1662,0.9695-2.1663,2.1658c0,0.0002,0,0.0004,0,0.0005v10.0245h-0.5362
		c-0.0052-0.0368-0.0125-0.0731-0.018-0.1097c-0.6988-4.8001-3.7547-9.112-7.9987-11.439c-0.729-0.3999-1.4895-0.7396-2.2738-1.0156
		c-1.6635-0.5833-3.4133-0.8826-5.1761-0.8855c-2.9893,0-5.9584,0.8841-8.4702,2.5033c-2.3423,1.5098-4.2418,3.6587-5.4994,6.1402
		c-0.7444,1.4686-1.2416,3.0676-1.479,4.6967c-0.0055,0.0366-0.0128,0.0731-0.018,0.1097H55.0773
		c-0.0052-0.0377-0.0128-0.0745-0.0183-0.1119c-0.7534-5.1237-4.1796-9.7-8.8719-11.8846c-0.4258-0.1981-0.8606-0.3762-1.303-0.5337
		c-1.6918-0.6011-3.4772-0.9196-5.2735-0.9196c-0.2581,0-0.5146,0.0068-0.77,0.0196c-2.8119,0.1375-5.5933,1.0473-7.9236,2.631
		c-1.0798,0.7337-2.066,1.5966-2.9366,2.5694c-0.9142,1.0213-1.6926,2.1565-2.3159,3.3773
		c-0.7564,1.4817-1.2598,3.096-1.5022,4.7411c-0.0055,0.0377-0.0131,0.0742-0.0183,0.1119h-4.3414v-10.0245
		c0.0001-1.1963-0.9695-2.1662-2.1658-2.1663c-0.0002,0-0.0004,0-0.0005,0h-4.9957v-9.0402
		c27.2844-0.0584,54.888-0.0573,82.093,0.0044c1.1945,0,2.1635-0.9669,2.166-2.1614c0.0029-1.1963-0.9646-2.1684-2.1609-2.1712
		c-0.0002,0-0.0004,0-0.0006,0c-27.0983-0.0611-54.5969-0.0628-81.7814-0.0049c0.8467-2.8332,3.3023-4.8879,6.1928-4.8879h108.9266
		v4.8792c-7.9887-0.0478-15.9776-0.0431-23.9663,0.0139c-1.1962,0.0087-2.1589,0.9855-2.1502,2.1818c0,0.0002,0,0.0004,0,0.0007
		c0.0085,1.1902,0.9758,2.1505,2.166,2.1505h0.0161c7.8311-0.0579,16.0565-0.0622,23.9343-0.0139v9.0495h-5.423V97.9155z
		 M135.6668,110.1063h-10.8472v-7.8581h10.8472L135.6668,110.1063L135.6668,110.1063z"/>
</g>
</svg>
