<?xml version="1.0" encoding="utf-8"?>
<!-- Generator: Adobe Illustrator 23.0.2, SVG Export Plug-In . SVG Version: 6.00 Build 0)  -->
<svg version="1.1" id="Capa_1" xmlns="http://www.w3.org/2000/svg" xmlns:xlink="http://www.w3.org/1999/xlink" x="0px" y="0px"
	 viewBox="0 0 25 25.2" style="enable-background:new 0 0 25 25.2;" xml:space="preserve">
<style type="text/css">
	.st0{fill:#C10E2D;}
</style>
<path class="st0" d="M20.8,10c0-0.3-0.1-0.5-0.3-0.7L19,7.9c-0.2-0.2-0.4-0.3-0.7-0.3s-0.5,0.1-0.7,0.3l-6.5,6.5l-3.6-3.6
	c-0.2-0.2-0.4-0.3-0.7-0.3S6.2,10.5,6,10.7l-1.5,1.4c-0.2,0.2-0.3,0.4-0.3,0.7c0,0.3,0.1,0.5,0.3,0.7l5.8,5.8
	c0.2,0.2,0.4,0.3,0.7,0.3c0.3,0,0.5-0.1,0.7-0.3l8.7-8.7C20.7,10.6,20.8,10.3,20.8,10z M24.8,12.6c0,2.2-0.5,4.3-1.6,6.2
	c-1.1,1.9-2.6,3.4-4.5,4.5c-1.9,1.1-3.9,1.6-6.2,1.6s-4.3-0.5-6.2-1.6S3,20.6,1.9,18.8c-1.1-1.9-1.6-3.9-1.6-6.2s0.5-4.3,1.6-6.2
	S4.5,3.1,6.4,2s3.9-1.6,6.2-1.6s4.3,0.5,6.2,1.6c1.9,1.1,3.4,2.6,4.5,4.5S24.8,10.4,24.8,12.6z"/>
</svg>
